1 10 20
100 200 125
201 210 89
900 1000 174
10 1 20
1 1 1
184282 923620 525
586071 672892 509
608557 71676 470
843660 341375 525
620042 563136 447
213335 72791 383
171820 538462 470
765612 795777 468
279306 331908 389
824601 211916 509
201291 940053 525
64696 279756 443
622877 387944 470
683542 523254 509
559701 872057 525
913672 424494 525
912416 378410 525
219492 664900 509
82750 695790 509
801574 891341 525
729072 512322 509
305326 461188 449
876329 682318 525
809934 684683 504
854941 858481 388
89119 976049 525
235650 686952 509
109558 760772 509
323657 518950 470
740935 181740 509
382783 177650 443
711300 866067 525
251567 158676 443
342944 628532 509
585464 702917 509
521501 937103 525
589483 815868 509
940796 702545 525
949798 309990 525
304395 641570 509
656251 25272 509
330907 910467 525
223726 481893 449
348217 460475 449
868468 325299 525
8251 860793 525
335161 730367 509
91054 85933 333
248580 160811 443
19163 410589 449
564831 375120 470
225596 178898 386
432013 771452 509
263514 217006 443
737125 610217 509
394941 284077 441
890156 283194 525
310347 269405 407
380127 544952 470
235495 458111 449
100046 958121 525
227236 600371 470
3454 684401 509
221632 178186 386
730205 845921 525
368810 73675 443
250197 105721 443
112866 83279 354
762694 681769 504
920856 996920 507
78889 937217 525
283519 140668 443
986135 268247 525
171247 172461 334
731515 224161 509
892837 707687 525
550784 405556 470
987625 746602 525
282542 247147 407
93884 748253 509
682300 662494 442
786792 171729 509
513554 860998 525
162847 472172 449
645953 476169 509
32473 187167 383
500156 992950 525
905019 245331 525
906801 219444 525
340939 228077 443
254655 637139 509
675234 246831 509
322289 918199 525
516550 879179 525
23516 66614 340
726645 320031 509
991444 648133 525
983244 258173 525
976708 588822 525
713569 481874 509
