1 10 20
100 200 125
201 210 89
900 1000 174
9 9 20
16952 24776 282
186800 209216 373
48248 48248 97
358656 343712 441
66504 71720 325
470736 478208 382
97800 95192 297
650064 612704 509
129096 118664 336
21632 31616 308
114300 128016 349
61568 61568 56
219456 210312 386
84864 91520 333
288036 292608 389
124800 121472 336
397764 374904 436
164736 151424 383
5278 7714 262
240200 269024 407
15022 15022 64
461184 441968 387
20706 22330 269
605304 614912 403
30450 29638 272
835896 787856 468
40194 36946 306
44395 64885 340
70575 79044 351
126355 126355 80
135504 129858 344
174165 187825 365
177849 180672 365
256125 249295 363
245601 231486 381
338085 310765 384
117559 171817 383
70075 78484 351
334591 334591 260
134544 128938 344
461193 497365 444
176589 179392 347
678225 660139 442
243861 229846 443
895257 822913 525
62153 90839 351
65725 73612 325
176897 176897 104
126192 120934 336
243831 262955 363
165627 168256 352
358575 349013 379
228723 215578 386
473319 435071 444
68965 100795 351
66800 74816 325
196285 196285 161
128256 122912 331
270555 291775 389
168336 171008 334
397875 387265 436
232464 219104 443
525195 482755 470
83382 121866 354
34425 38556 324
237318 237318 138
66096 63342 330
327114 352770 441
86751 88128 333
481050 468222 413
119799 112914 349
634986 583674 509
51909 75867 340
202175 226436 386
147741 147741 83
388176 372002 423
203643 219615 386
509481 517568 470
299475 291489 371
703569 663134 442
395307 363363 436
106366 155458 375
90375 101220 341
302734 302734 110
173520 166290 347
417282 450010 418
227745 231360 443
613650 597286 403
314505 296430 384
810018 744562 468
38311 55993 340
150025 168028 383
109039 109039 155
288048 276046 389
150297 162085 383
378063 384064 379
221025 215131 386
522087 492082 470
291753 268177 407
14872 21736 279
181450 203224 360
42328 42328 58
348384 333868 441
58344 62920 335
457254 464512 444
85800 83512 320
631446 595156 509
113256 104104 354
40872 59736 340
228600 256032 443
116328 116328 75
438912 420624 418
160344 172920 370
576072 585216 434
235800 229512 443
795528 749808 468
311256 286104 389
