..................
----------------------------------------------------------------------
Ran 18 tests in 0.019s

OK
Name             Stmts   Miss Branch BrPart  Cover   Missing
------------------------------------------------------------
Collatz.py          33      0     14      0   100%
TestCollatz.py      75      0      0      0   100%
------------------------------------------------------------
TOTAL              108      0     14      0   100%
