.............
----------------------------------------------------------------------
Ran 13 tests in 0.025s

OK
Name             Stmts   Miss Branch BrPart  Cover   Missing
------------------------------------------------------------
Collatz.py          44      3     16      2    92%   42-43, 105, 41->42, 104->105
TestCollatz.py      58      0      0      0   100%
------------------------------------------------------------
TOTAL              102      3     16      2    96%.......
----------------------------------------------------------------------
