1 10 20
100 200 125
201 210 89
900 1000 174
1 2 2
22 34 112
999 99999 351
66 666940 509
23049 230403 386
23 3940 238
340 10349 262
1 1000 179
2 34958 311
23948 39542 324
952 298349 443
23489 349493 443
343 43546 324
35256 754536 509
25 3637 217
365 243573 443
357 4765 238
4674 365347 443
374 4674 238
3939 39595 324
395389 444444 449
2522 655757 509
22222 999999 525
3393 39499 324
31 232 128
1 9 20
249354 420605 449
1222 28383 308
134 394238 443
149 39489 324
12 3888 238
349 9393 262
93 9387 262
56 67 108
199 839 171
38383 383838 443
9 83 116
29 233 128
29 3847 238
249 49823 324
3 8 17
7 59 113
39992 48888 314
495 2095 182
284 94992 351
93 488 144
20 499 144
2 90 116
298 488 144
4 34 112
358 389 121
56 8878 262
5 6 9
4 90 116
8 923 179
293 9830 262
304 999388 525
435 945890 525
34 485858 449
493 5936 238
394 6984 262
334 566 142
34 670 145
2455 4657 238
4356 34576 311
2435 7365 262
3 655757 509
436 7588 262
54 432 144
24235 235445 443
34 356 144
325 4657 238
352 6664 262
235 657 145
23 5467 238
346 57573 340
452 575474 470
457356 547467 470
45 46537 324
346 573533 470
3465 357547 443
345 4686 238
54 7686 262
8 879 179
69 649 145
459 5962 238
25 46990 324
234549 495090 449
494 45620 324
292939 450902 449
3405 40609 324
2405 209029 383
2059 246090 443
23059 505340 449
405 50963 324
2340 45934 324
234 45609 324
2359 7640 262
47 857 171
758 5689 238
47 769 171
5769 5975 218
457 45865 324
