.................
----------------------------------------------------------------------
Ran 17 tests in 0.145s

OK
Name             Stmts   Miss Branch BrPart  Cover   Missing
------------------------------------------------------------
Collatz.py          46      0     24      2    97%   43->53, 62->exit
TestCollatz.py      71      0      0      0   100%
------------------------------------------------------------
TOTAL              117      0     24      2    99%
